Directory of C:\.
.              <DIR>            16-09-2015 17:32
..             <DIR>            16-09-2015 10:52
LAB1           <DIR>            16-09-2015 17:13
MYDIR          <DIR>            16-09-2015 10:52
1        ASM                 29 25-09-2013 23:27
1        TXT                  0 16-09-2015 17:32
1DOSBO~1 BAT                 29 16-10-2011 15:27
ADDSUB   EXE                540 27-09-2013  9:47
ADDSUB   OBJ                180 27-09-2013  9:47
CALC     EXE                851 27-09-2013  7:21
CALC     OBJ                542 27-09-2013  7:21
CLRFILE  CV4                203 27-09-2013  9:39
CREF     EXE             66,560 19-02-2009  8:19
CURRENT  STS                706 27-09-2013  9:39
CV       EXE            468,512 17-11-1997 23:23
CV       ICO              1,086 17-11-1997 23:23
CVPACK   EXE            127,520 17-11-1997 23:23
CVW      EXE             63,488 17-11-1997 23:23
CVW1     386              5,194 17-11-1997 23:23
CVW4     EXE            410,112 17-11-1997 23:23
DMW0     DLL             45,856 17-11-1997 23:23
DOSBOX   EXE          3,727,360 12-05-2010 12:55
DOSBOX~1 CON              7,379 03-05-2012 12:12
DOSXNT   EXE            393,942 12-10-2011 23:14
EED1CXX  DLL            105,722 17-11-1997 23:23
EEW0CXX  DLL            105,073 17-11-1997 23:23
EMD1D1   DLL             69,322 17-11-1997 23:23
EMD1W0   DLL             74,028 17-11-1997 23:23
EMM386   EXE            110,174 17-11-1997 23:23
EMW0W0   DLL             74,432 17-11-1997 23:23
ERROR    TXT              3,441 25-09-2013 23:24
EXEHDR   EXE             39,377 17-11-1997 23:23
EXP      EXE             18,757 17-11-1997 23:23
HELLO    ASM                172 25-09-2013 23:28
HELLO    EXE                543 25-09-2013 23:30
HELLO    OBJ                166 25-09-2013 23:28
HIMEM    SYS             13,824 17-11-1997 23:23
IMPLIB   EXE             42,581 17-11-1997 23:23
LAB1     COM                281 26-09-2013 12:43
LAB1     EXE              1,049 26-09-2013 12:43
LAB1     OBJ                439 26-09-2013 12:43
LIB      EXE             59,089 17-11-1997 23:23
LIBPNG13 DLL            203,264 04-12-2004  1:09
LINK     EXE            202,912 17-11-1997 23:23
MASM     EXE             49,152 19-02-2009  8:19
MASM     GRP              6,176 17-11-1997 23:23
ML       ERR              9,287 19-02-2009  8:19
ML       EXE            388,608 19-02-2009  8:19
MOUSE    COM             56,425 17-11-1997 23:23
MSD      EXE            155,538 17-11-1997 23:23
MSD      TXT              9,003 17-11-1997 23:23
NEW-CONF SYS                230 09-02-2009 19:30
NEW-SYS  INI                712 09-02-2009 19:30
NEW-VARS BAT                129 09-02-2009 19:30
NMAKE    EXE             45,568 19-02-2009  8:19
NMAKER   EXE             86,809 19-02-2009  8:19
OEM08    FON              4,752 17-11-1997 23:23
OEM10    FON              5,264 17-11-1997 23:23
RAMDRIVE SYS              5,873 17-11-1997 23:23
RCVCOM   EXE             92,096 17-11-1997 23:23
RCVWCOM  EXE             34,464 17-11-1997 23:23
RM       EXE             14,799 17-11-1997 23:23
SDL      DLL            448,231 09-04-2010 22:04
SDL_NET  DLL             13,312 09-04-2010 22:04
SHD1     DLL             42,804 17-11-1997 23:23
SHW0     DLL             42,720 17-11-1997 23:23
SMARTDRV DOC             15,017 17-11-1997 23:23
SMARTDRV EXE             43,609 17-11-1997 23:23
STDERR   TXT                  0 16-09-2015 17:32
STDOUT   TXT                  0 16-09-2015 17:32
TLD1COM  DLL             22,126 17-11-1997 23:23
TLD1LOC  DLL             16,692 17-11-1997 23:23
TLW0LOC  DLL             46,400 17-11-1997 23:23
TOOLHELP DLL             14,128 17-11-1997 23:23
TXT      TXT                  0 05-04-2012 10:24
UNDEL    EXE             19,519 17-11-1997 23:23
ZLIB1    DLL             75,264 20-07-2005 18:05
   73 File(s)         8,209,442 Bytes.
    4 Dir(s)        262,111,744 Bytes free.
