Определим, что отразится.
Адрес 10h, код 0Ah, цвет 1011b  
10h = 16
0Ah = 00001010b, следовательно, отобразится 2 точки. Найдем их координаты.
16 / 80 = 0 =>  y = 0
16 % 80 = 16, значит, 16 байт
остаток*8 = 128
x1 = 132, 	y1 = 0
x2 = 134, 	y2 = 0
Цвет - яркий циан. Т.к. на фоне все ноли, то действительно отобразится две ярко-циановые точки.
